000 (144848099.000.000) 04/03 12:37:46 Job submitted from host: <10.14.0.18:9618?addrs=10.14.0.18-9618&noUDP&sock=5052_d48c_3>
    DAG Node: 93
...
001 (144848099.000.000) 04/03 12:39:28 Job executing on host: <10.14.3.75:9618?addrs=10.14.3.75-9618&noUDP&sock=31950_9ef9_3>
...
006 (144848099.000.000) 04/03 12:39:29 Image size of job updated: 5408
	0  -  MemoryUsage of job (MB)
	0  -  ResidentSetSize of job (KB)
...
005 (144848099.000.000) 04/03 12:39:29 Job terminated.
	(1) Normal termination (return value 0)
		Usr 0 00:00:01, Sys 0 00:00:01  -  Run Remote Usage
		Usr 0 00:00:00, Sys 0 00:00:00  -  Run Local Usage
		Usr 0 00:00:01, Sys 0 00:00:01  -  Total Remote Usage
		Usr 0 00:00:00, Sys 0 00:00:00  -  Total Local Usage
	0  -  Run Bytes Sent By Job
	0  -  Run Bytes Received By Job
	0  -  Total Bytes Sent By Job
	0  -  Total Bytes Received By Job
	Partitionable Resources :    Usage  Request Allocated 
	   Cpus                 :        0        1         1 
	   Disk (KB)            :        1        1     20417 
	   Gpus                 :                           0 
	   Memory (MB)          :        0     2048      2048 
...
