000 (144848190.000.000) 04/03 12:39:47 Job submitted from host: <10.14.0.18:9618?addrs=10.14.0.18-9618&noUDP&sock=5052_d48c_3>
    DAG Node: 69
...
001 (144848190.000.000) 04/03 12:40:59 Job executing on host: <10.14.7.115:9618?addrs=10.14.7.115-9618&noUDP&sock=4009_6b45_5>
...
006 (144848190.000.000) 04/03 12:41:07 Image size of job updated: 212
	1  -  MemoryUsage of job (MB)
	212  -  ResidentSetSize of job (KB)
...
005 (144848190.000.000) 04/03 12:41:36 Job terminated.
	(1) Normal termination (return value 0)
		Usr 0 00:00:00, Sys 0 00:00:00  -  Run Remote Usage
		Usr 0 00:00:00, Sys 0 00:00:00  -  Run Local Usage
		Usr 0 00:00:00, Sys 0 00:00:00  -  Total Remote Usage
		Usr 0 00:00:00, Sys 0 00:00:00  -  Total Local Usage
	0  -  Run Bytes Sent By Job
	0  -  Run Bytes Received By Job
	0  -  Total Bytes Sent By Job
	0  -  Total Bytes Received By Job
	Partitionable Resources :    Usage  Request Allocated 
	   Cpus                 :        0        1         1 
	   Disk (KB)            :        1        1     51139 
	   Gpus                 :                           0 
	   Memory (MB)          :        1     2048      2048 
...
