000 (144848156.000.000) 04/03 12:39:08 Job submitted from host: <10.14.0.18:9618?addrs=10.14.0.18-9618&noUDP&sock=5052_d48c_3>
    DAG Node: 78
...
001 (144848156.000.000) 04/03 12:39:30 Job executing on host: <10.14.4.161:9618?addrs=10.14.4.161-9618&noUDP&sock=3050_9ff2_3>
...
006 (144848156.000.000) 04/03 12:39:30 Image size of job updated: 121264
	119  -  MemoryUsage of job (MB)
	121264  -  ResidentSetSize of job (KB)
...
005 (144848156.000.000) 04/03 12:39:32 Job terminated.
	(1) Normal termination (return value 0)
		Usr 0 00:00:01, Sys 0 00:00:01  -  Run Remote Usage
		Usr 0 00:00:00, Sys 0 00:00:00  -  Run Local Usage
		Usr 0 00:00:01, Sys 0 00:00:01  -  Total Remote Usage
		Usr 0 00:00:00, Sys 0 00:00:00  -  Total Local Usage
	0  -  Run Bytes Sent By Job
	0  -  Run Bytes Received By Job
	0  -  Total Bytes Sent By Job
	0  -  Total Bytes Received By Job
	Partitionable Resources :    Usage  Request Allocated 
	   Cpus                 :                 1         1 
	   Disk (KB)            :        1        1     51123 
	   Gpus                 :                           0 
	   Memory (MB)          :      119     2048      2048 
...
