000 (144848305.000.000) 04/03 12:42:29 Job submitted from host: <10.14.0.18:9618?addrs=10.14.0.18-9618&noUDP&sock=5052_d48c_3>
    DAG Node: 39
...
001 (144848305.000.000) 04/03 12:42:37 Job executing on host: <10.14.9.84:9618?addrs=10.14.9.84-9618&noUDP&sock=5556_8847_3>
...
006 (144848305.000.000) 04/03 12:42:40 Image size of job updated: 1
	0  -  MemoryUsage of job (MB)
	0  -  ResidentSetSize of job (KB)
...
005 (144848305.000.000) 04/03 12:42:40 Job terminated.
	(1) Normal termination (return value 0)
		Usr 0 00:00:01, Sys 0 00:00:00  -  Run Remote Usage
		Usr 0 00:00:00, Sys 0 00:00:00  -  Run Local Usage
		Usr 0 00:00:01, Sys 0 00:00:00  -  Total Remote Usage
		Usr 0 00:00:00, Sys 0 00:00:00  -  Total Local Usage
	0  -  Run Bytes Sent By Job
	0  -  Run Bytes Received By Job
	0  -  Total Bytes Sent By Job
	0  -  Total Bytes Received By Job
	Partitionable Resources :    Usage  Request Allocated 
	   Cpus                 :        0        1         1 
	   Disk (KB)            :        1        1    102311 
	   Gpus                 :                           0 
	   Memory (MB)          :        0     2048      2048 
...
