                                              ..-
    PyKat 1.2.2           _                  '(
                          \`.|\.__...-""""-_." )
       ..+-----.._        /  ' `            .-'
   . '            `:      7/* _/._\    \   (
  (        '::;;+;;:      `-"' =" /,`"" `) /
  L.        \`:::a:f            c_/     n_'
  ..`--...___`.  .    ,
   `^-....____:   +.      www.gwoptics.org/pykat

